chapter_06
…
## Parsed with column specification:
## cols(
##   temperature = col_integer(),
##   pressure = col_double()
## )

water_pressure

## # A tibble: 21 x 2
##    temperature pressure
##          <int>    <dbl>
##  1         -40    0.105
##  2         -20    0.787
##  3           0    4.57 
##  4          20   17.4  
##  5          40   54.9  
##  6          60  149.   
##  7          80  355.   
##  8         100  760    
##  9         120 1489.   
## 10         140 2711.   
## # ... with 11 more rows
…
